{
    "plugins": [],
    "recurseDepth": 10,
    "source": {
        "includePattern": ".+\\.js(doc|x)?$",
        "excludePattern": "(^|\\/|\\\\)_|public"
    },
    "sourceType": "module",
    "tags": {
        "allowUnknownTags": true,
        "dictionaries": ["jsdoc","closure"]
    },
    "templates": {
        "cleverLinks": false,
        "monospaceLinks": false
    }
}
